lab2/simulation/qsim/lab2.msim.vcd
$comment
	File created using the following command:
		vcd file lab2.msim.vcd -direction
$end
$date
	Sun Jan 28 12:50:51 2024
$end
$version
	ModelSim Version 10.5b
$end
$timescale
	1ps
$end

$scope module Lab2_vlg_vec_tst $end
$var reg 1 ! CLOCK $end
$var reg 1 " DIN0 $end
$var reg 1 # DIN1 $end
$var reg 1 $ FETCH $end
$var reg 1 % LDSBR $end
$var reg 1 & SAR0 $end
$var reg 1 ' SAR1 $end
$var reg 1 ( STORE $end
$var wire 1 ) ADR0 $end
$var wire 1 * ADR1 $end
$var wire 1 + ADR2 $end
$var wire 1 , ADR3 $end
$var wire 1 - AEB $end
$var wire 1 . Q00 $end
$var wire 1 / Q01 $end
$var wire 1 0 Q02 $end
$var wire 1 1 Q03 $end
$var wire 1 2 Q10 $end
$var wire 1 3 Q11 $end
$var wire 1 4 Q12 $end
$var wire 1 5 Q13 $end
$var wire 1 6 SBR0 $end
$var wire 1 7 SBR1 $end
$var wire 1 8 X0 $end
$var wire 1 9 Y0 $end
$var wire 1 : Y1 $end

$scope module i1 $end
$var wire 1 ; gnd $end
$var wire 1 < vcc $end
$var wire 1 = unknown $end
$var tri1 1 > devclrn $end
$var tri1 1 ? devpor $end
$var tri1 1 @ devoe $end
$var wire 1 A SBR1~output_o $end
$var wire 1 B SBR0~output_o $end
$var wire 1 C AEB~output_o $end
$var wire 1 D ADR0~output_o $end
$var wire 1 E ADR1~output_o $end
$var wire 1 F Y1~output_o $end
$var wire 1 G Y0~output_o $end
$var wire 1 H Q00~output_o $end
$var wire 1 I Q01~output_o $end
$var wire 1 J Q02~output_o $end
$var wire 1 K Q03~output_o $end
$var wire 1 L Q10~output_o $end
$var wire 1 M Q11~output_o $end
$var wire 1 N Q12~output_o $end
$var wire 1 O Q13~output_o $end
$var wire 1 P X0~output_o $end
$var wire 1 Q ADR2~output_o $end
$var wire 1 R ADR3~output_o $end
$var wire 1 S CLOCK~input_o $end
$var wire 1 T CLOCK~inputclkctrl_outclk $end
$var wire 1 U DIN1~input_o $end
$var wire 1 V LDSBR~input_o $end
$var wire 1 W FETCH~input_o $end
$var wire 1 X SAR1~input_o $end
$var wire 1 Y inst10|26~0_combout $end
$var wire 1 Z inst10|26~q $end
$var wire 1 [ SAR0~input_o $end
$var wire 1 \ inst10|5~combout $end
$var wire 1 ] inst10|25~0_combout $end
$var wire 1 ^ inst10|25~q $end
$var wire 1 _ inst1|sub|110~combout $end
$var wire 1 ` inst14|4~combout $end
$var wire 1 a STORE~input_o $end
$var wire 1 b inst2|10~0_combout $end
$var wire 1 c inst4|41~feeder_combout $end
$var wire 1 d inst4|41~q $end
$var wire 1 e inst4|40~feeder_combout $end
$var wire 1 f inst4|40~q $end
$var wire 1 g inst4|39~feeder_combout $end
$var wire 1 h inst4|39~q $end
$var wire 1 i inst4|38~feeder_combout $end
$var wire 1 j inst4|38~q $end
$var wire 1 k inst7|10~0_combout $end
$var wire 1 l inst7|9~0_combout $end
$var wire 1 m inst7|9~1_combout $end
$var wire 1 n inst|10~q $end
$var wire 1 o DIN0~input_o $end
$var wire 1 p inst2|9~0_combout $end
$var wire 1 q inst3|41~feeder_combout $end
$var wire 1 r inst3|41~q $end
$var wire 1 s inst3|40~feeder_combout $end
$var wire 1 t inst3|40~q $end
$var wire 1 u inst3|39~feeder_combout $end
$var wire 1 v inst3|39~q $end
$var wire 1 w inst3|38~feeder_combout $end
$var wire 1 x inst3|38~q $end
$var wire 1 y inst7|9~2_combout $end
$var wire 1 z inst|9~q $end
$var wire 1 { inst8|4~combout $end
$var wire 1 | inst12|4~combout $end
$var wire 1 } inst10|51~combout $end
$var wire 1 ~ inst10|24~0_combout $end
$var wire 1 !! inst10|24~q $end
$var wire 1 "! inst10|21~combout $end
$var wire 1 #! inst10|23~0_combout $end
$var wire 1 $! inst10|23~q $end
$upscope $end
$upscope $end
$enddefinitions $end
#0
$dumpvars
1!
0"
1#
0$
1%
0&
0'
0(
0)
0*
0+
0,
1-
0.
0/
00
01
02
03
04
05
06
07
08
19
0:
0;
1<
x=
1>
1?
1@
0A
0B
1C
0D
0E
0F
1G
0H
0I
0J
0K
0L
0M
0N
0O
0P
0Q
0R
1S
1T
1U
1V
0W
0X
1Y
0Z
0[
1\
1]
0^
0_
0`
0a
0b
0c
0d
0e
0f
0g
0h
0i
0j
1k
1l
1m
0n
0o
0p
0q
0r
0s
0t
0u
0v
0w
0x
0y
0z
1{
0|
1}
1~
0!!
1"!
1#!
0$!
$end
#5000
0!
0S
0T
#10000
1!
1S
1T
1Z
1n
1A
1D
1_
1)
17
0Y
0C
0-
#15000
0!
0S
0T
0\
#20000
1!
1S
1T
1\
1^
0Z
0D
1E
1*
0)
0]
1Y
#25000
0!
0S
0T
#30000
0%
1!
0V
1S
1T
0l
0{
0G
0m
09
1Z
1D
1)
0Y
#35000
0!
0S
0T
0}
0\
#40000
0#
1%
1!
0U
1V
1S
1T
1l
0k
1{
1}
1\
1G
1m
19
1!!
0^
0Z
0D
0E
1Q
0_
1+
0*
0)
0~
1]
1Y
1C
1-
#45000
0!
0S
0T
#50000
1!
1S
1T
1Z
0n
0A
1D
1_
1)
07
0Y
0C
0-
#55000
0!
0S
0T
0\
#60000
1!
1S
1T
1\
1^
0Z
0D
1E
1*
0)
0]
1Y
#65000
0!
0S
0T
#70000
0%
1!
0V
1S
1T
0l
0{
0G
0m
09
1Z
1D
1)
0Y
#75000
0!
0S
0T
0"!
0}
0\
#80000
1"
1%
1!
1o
1V
1S
1T
1l
1y
1{
1"!
1}
1\
1G
1m
19
1$!
0!!
0^
0Z
0D
0E
0Q
1R
0_
1,
0+
0*
0)
0#!
1~
1]
1Y
1C
1-
#85000
0!
0S
0T
#90000
1!
1S
1T
1Z
1z
1B
1D
1_
1)
16
0Y
0C
0-
#95000
0!
0S
0T
0\
#100000
1!
1S
1T
1\
1^
0Z
0D
1E
1*
0)
0]
1Y
#105000
0!
0S
0T
#110000
0%
1!
0V
1S
1T
0l
0{
0G
0m
09
1Z
1D
1)
0Y
#115000
0!
0S
0T
0}
0\
#120000
1#
1%
1!
1U
1V
1S
1T
1l
1k
1{
1}
1\
1G
1m
19
1!!
0^
0Z
0D
0E
1Q
0_
1+
0*
0)
0~
1]
1Y
1C
1-
#125000
0!
0S
0T
#130000
1!
1S
1T
1Z
1n
1A
1D
1_
1)
17
0Y
0C
0-
#135000
0!
0S
0T
0\
#140000
1!
1S
1T
1\
1^
0Z
0D
1E
1*
0)
0]
1Y
#145000
0!
0S
0T
#150000
0%
1!
0V
1S
1T
0l
0{
0G
0m
09
1Z
1D
1)
0Y
#155000
0!
0S
0T
0"!
0}
0\
#160000
0"
0#
1!
0o
0U
1S
1T
0y
0k
1"!
1}
1\
0$!
0!!
0^
0Z
0D
0E
0Q
0R
0_
0,
0+
0*
0)
1#!
1~
1]
1Y
1C
1-
#165000
0!
0S
0T
#170000
1!
1S
1T
1Z
1D
1_
1)
0Y
0C
0-
#175000
0!
0S
0T
0\
#180000
1!
1S
1T
1\
1^
0Z
0D
1E
1*
0)
0]
1Y
#185000
0!
0S
0T
#190000
1&
1'
1!
1[
1X
1S
1T
1Z
1D
0_
1)
0Y
1C
1-
#195000
0!
0S
0T
0}
0\
#200000
1(
1!
1a
1S
1T
1p
1b
1|
1}
1\
1P
18
1q
1c
1!!
0^
0Z
0D
0E
1Q
1_
1+
0*
0)
0~
1]
1Y
0C
0p
0b
0-
0|
0P
08
0q
0c
#205000
0!
0S
0T
#210000
1!
1S
1T
1Z
1D
1)
0Y
#215000
0!
0S
0T
0\
#220000
1!
1S
1T
1\
1^
0Z
0D
1E
1*
0)
0]
1Y
#225000
0!
0S
0T
#230000
1!
1S
1T
1Z
1D
0_
1)
0Y
1C
1p
1b
1-
1|
1P
18
1q
1c
#235000
0!
0S
0T
0"!
0}
0\
#240000
0(
1!
0a
1S
1T
0p
0b
0|
1"!
1}
1\
0P
08
0q
0c
1$!
0!!
0^
0Z
1r
1d
1L
1H
0D
0E
0Q
1R
1_
1,
0+
0*
0)
1.
12
0#!
1~
1]
1Y
1s
1e
0C
0-
#245000
0!
0S
0T
#250000
1%
1"
1!
1V
1o
1S
1T
1l
1{
1y
1G
1m
19
1Z
1t
0r
1f
0d
0L
1M
0H
1I
1D
1)
1/
0.
13
02
0Y
1u
0s
1g
0e
#255000
0!
0S
0T
0\
#260000
1!
1S
1T
1\
1^
0Z
1v
0t
0n
1h
0f
0M
1N
0A
0I
1J
0D
1E
1*
0)
10
0/
07
14
03
0]
1Y
1w
0u
1i
0g
#265000
0!
0S
0T
#270000
1!
1S
1T
1Z
1x
0v
1j
0h
0N
1O
0J
1K
1D
0_
1p
1b
1)
11
00
15
04
0Y
0w
0i
1C
1-
1q
1c
#275000
0!
0S
0T
0}
0\
#280000
0'
0%
1!
0X
0V
1S
1T
1_
0l
0{
1}
1\
0G
0C
0m
0-
09
1!!
0^
0Z
0x
1r
0j
1d
1L
0O
1H
0K
0D
0E
1Q
0p
0b
1+
0*
0)
01
1.
05
12
0~
1]
1Y
1s
1e
0q
0c
#285000
0!
0S
0T
#290000
1(
0"
1!
1a
0o
1S
1T
0y
1Z
1t
0r
1f
0d
0L
1M
0H
1I
1D
0_
1)
1/
0.
13
02
0Y
1u
0s
1g
0e
1C
1p
1-
1|
1P
18
1q
#295000
0!
0S
0T
0\
#300000
1!
1S
1T
1\
1^
0Z
1v
0t
1r
1h
0f
0M
1N
1H
0I
1J
0D
1E
1_
1*
0)
10
0/
1.
14
03
0]
1Y
1w
0u
1s
1i
0g
0C
0p
0-
0|
0P
08
0q
#305000
0!
0S
0T
#310000
1!
1S
1T
1Z
1x
0v
1t
0r
1j
0h
0N
1O
0H
1I
0J
1K
1D
1p
1b
1)
11
00
1/
0.
15
04
0Y
0w
1u
0s
0i
1q
1c
#315000
0!
0S
0T
0"!
0}
0\
#320000
1!
1S
1T
1"!
1}
1\
0$!
0!!
0^
0Z
0x
1v
0t
1r
0j
1d
1L
0O
1H
0I
1J
0K
0D
0E
0Q
0R
0p
0b
0,
0+
0*
0)
01
10
0/
1.
05
12
1#!
1~
1]
1Y
1w
0u
1s
1e
0q
0c
#325000
0!
0S
0T
#330000
0(
1!
0a
1S
1T
1Z
1x
0v
1t
0r
1f
0d
0L
1M
0H
1I
0J
1K
1D
0_
1p
1)
11
00
1/
0.
13
02
0Y
0w
1u
0s
1g
0e
1C
1-
1q
#335000
0!
0S
0T
0\
#340000
1%
1!
1V
1S
1T
1l
1{
1\
1G
1m
19
1^
0Z
0x
1v
0t
1r
1h
0f
0M
1N
1H
0I
1J
0K
0D
1E
1_
0p
1*
0)
01
10
0/
1.
14
03
0]
1Y
1w
0u
1s
1i
0g
0C
0-
0q
#345000
0!
0S
0T
#350000
1!
1S
1T
1Z
0z
1x
0v
1t
0r
1j
0h
0N
1O
0H
1I
0J
1K
0B
1D
1p
1b
1)
06
11
00
1/
0.
15
04
0Y
0w
1u
0s
0i
1q
1c
#355000
0!
0S
0T
0}
0\
#360000
1!
1S
1T
1}
1\
1!!
0^
0Z
0x
1v
0t
1r
0j
1d
1L
0O
1H
0I
1J
0K
0D
0E
1Q
0p
0b
1+
0*
0)
01
10
0/
1.
05
12
0~
1]
1Y
1w
0u
1s
1e
0q
0c
#365000
0!
0S
0T
#370000
0&
0%
1!
0[
0V
1S
1T
0l
0_
0{
0G
1C
0m
1-
09
1Z
1x
0v
1t
0r
1f
0d
0L
1M
0H
1I
0J
1K
1D
1_
1p
1)
11
00
1/
0.
13
02
0Y
0w
1u
0s
1g
0e
0C
0-
1q
#375000
0!
0S
0T
0\
#380000
1(
1!
1a
1S
1T
1\
1^
0Z
0x
1v
0t
1r
1h
0f
0M
1N
1H
0I
1J
0K
0D
1E
0p
1*
0)
01
10
0/
1.
14
03
0]
1Y
1w
0u
1s
1i
0g
0q
#385000
0!
0S
0T
#390000
1!
1S
1T
1Z
1x
0v
1t
0r
1j
0h
0N
1O
0H
1I
0J
1K
1D
1p
1b
1)
11
00
1/
0.
15
04
0Y
0w
1u
0s
0i
1q
1c
#395000
0!
0S
0T
0"!
0}
0\
#400000
1!
1S
1T
1"!
1}
1\
1$!
0!!
0^
0Z
0x
1v
0t
1r
0j
1d
1L
0O
1H
0I
1J
0K
0D
0E
0Q
1R
0_
0p
0b
1,
0+
0*
0)
01
10
0/
1.
05
12
0#!
1~
1]
1Y
1w
0u
1s
1e
1C
1-
1|
0q
0c
1P
18
#405000
0!
0S
0T
#410000
1!
1S
1T
1Z
1x
0v
1t
0r
1f
0d
0L
1M
0H
1I
0J
1K
1D
1_
1)
11
00
1/
0.
13
02
0Y
0w
1u
0s
1g
0e
0C
1p
0-
0|
0P
08
1q
#415000
0!
0S
0T
0\
#420000
0(
1!
0a
1S
1T
1\
1^
0Z
0x
1v
0t
1r
1h
0f
0M
1N
1H
0I
1J
0K
0D
1E
0p
1*
0)
01
10
0/
1.
14
03
0]
1Y
1w
0u
1s
1i
0g
0q
#425000
0!
0S
0T
#430000
1#
1%
1!
1U
1V
1S
1T
1l
1k
1{
1G
1m
19
1Z
1x
0v
1t
0r
1j
0h
0N
1O
0H
1I
0J
1K
1D
1p
1b
1)
11
00
1/
0.
15
04
0Y
0w
1u
0s
0i
1q
1c
#435000
0!
0S
0T
0}
0\
#440000
1!
1S
1T
1}
1\
1!!
0^
0Z
0x
1v
0t
1r
1n
0j
1d
1L
0O
1A
1H
0I
1J
0K
0D
0E
1Q
0_
0p
0b
1+
0*
0)
01
10
0/
1.
17
05
12
0~
1]
1Y
1w
0u
1s
1e
1C
1-
0q
0c
#445000
0!
0S
0T
#450000
1!
1S
1T
1Z
1x
0v
1t
0r
1f
0d
0L
1M
0H
1I
0J
1K
1D
1_
1p
1)
11
00
1/
0.
13
02
0Y
0w
1u
0s
1g
0e
0C
0-
1q
#455000
0!
0S
0T
0\
#460000
1'
0%
1!
1X
0V
1S
1T
0l
0{
1\
0G
0m
09
1^
0Z
0x
1v
0t
1r
1h
0f
0M
1N
1H
0I
1J
0K
0D
1E
0_
0p
1*
0)
01
10
0/
1.
14
03
0]
1Y
1w
0u
1s
1i
0g
1C
1-
0q
#465000
0!
0S
0T
#470000
1(
0#
1!
1a
0U
1S
1T
1b
1|
0k
1P
18
1c
1Z
1x
0v
1t
0r
1j
0h
0N
1O
0H
1I
0J
1K
1D
1_
1)
11
00
1/
0.
15
04
0Y
0w
1u
0s
0i
0C
1p
0-
0|
0P
08
1q
#475000
0!
0S
0T
0"!
0}
0\
#480000
1!
1S
1T
1"!
1}
1\
0$!
0!!
0^
0Z
0x
1v
0t
1r
0j
1d
1L
0O
1H
0I
1J
0K
0D
0E
0Q
0R
0p
0b
0,
0+
0*
0)
01
10
0/
1.
05
12
1#!
1~
1]
1Y
1w
0u
1s
1e
0q
0c
#485000
0!
0S
0T
#490000
1!
1S
1T
1Z
1x
0v
1t
0r
1f
0d
0L
1M
0H
1I
0J
1K
1D
1p
1)
11
00
1/
0.
13
02
0Y
0w
1u
0s
1g
0e
1q
#495000
0!
0S
0T
0\
#500000
1!
1S
1T
1\
1^
0Z
0x
1v
0t
1r
1h
0f
0M
1N
1H
0I
1J
0K
0D
1E
0_
0p
1*
0)
01
10
0/
1.
14
03
0]
1Y
1w
0u
1s
1i
0g
1C
1b
1-
1|
0q
1P
18
1c
#505000
0!
0S
0T
#510000
0(
1!
0a
1S
1T
0b
0|
0P
08
0c
1Z
1x
0v
1t
0r
1j
0h
1d
1L
0N
1O
0H
1I
0J
1K
1D
1_
1p
1b
1)
11
00
1/
0.
15
04
12
0Y
0w
1u
0s
0i
1e
0C
0-
1q
1c
#515000
0!
0S
0T
0}
0\
#520000
1!
1S
1T
1}
1\
1!!
0^
0Z
0x
1v
0t
1r
0j
1f
1M
0O
1H
0I
1J
0K
0D
0E
1Q
0p
0b
1+
0*
0)
01
10
0/
1.
05
13
0~
1]
1Y
1w
0u
1s
1g
0q
0c
#525000
0!
0S
0T
#530000
1!
1S
1T
1Z
1x
0v
1t
0r
1h
0d
0L
1N
0H
1I
0J
1K
1D
1p
1)
11
00
1/
0.
14
02
0Y
0w
1u
0s
1i
0e
1q
#535000
0!
0S
0T
0\
#540000
1!
1S
1T
1\
1^
0Z
0x
1v
0t
1r
1j
0f
0M
1O
1H
0I
1J
0K
0D
1E
0_
0p
1b
1*
0)
01
10
0/
1.
15
03
0]
1Y
1w
0u
1s
0g
1C
1-
0q
1c
#545000
0!
0S
0T
#550000
0'
1!
0X
1S
1T
1_
0C
0-
1Z
1x
0v
1t
0r
0h
1d
1L
0N
0H
1I
0J
1K
1D
1p
1)
11
00
1/
0.
04
12
0Y
0w
1u
0s
0i
1e
1q
#555000
0!
0S
0T
0"!
0}
0\
#560000
1!
1S
1T
1"!
1}
1\
1$!
0!!
0^
0Z
0x
1v
0t
1r
0j
1f
1M
0O
1H
0I
1J
0K
0D
0E
0Q
1R
0_
0p
0b
1,
0+
0*
0)
01
10
0/
1.
05
13
0#!
1~
1]
1Y
1w
0u
1s
1g
1C
1-
0q
0c
#565000
0!
0S
0T
#570000
1!
1S
1T
1Z
1x
0v
1t
0r
1h
0d
0L
1N
0H
1I
0J
1K
1D
1_
1p
1)
11
00
1/
0.
14
02
0Y
0w
1u
0s
1i
0e
0C
0-
1q
#575000
0!
0S
0T
0\
#580000
1!
1S
1T
1\
1^
0Z
0x
1v
0t
1r
1j
0f
0M
1O
1H
0I
1J
0K
0D
1E
0p
1b
1*
0)
01
10
0/
1.
15
03
0]
1Y
1w
0u
1s
0g
0q
1c
#585000
0!
0S
0T
#590000
1!
1S
1T
1Z
1x
0v
1t
0r
0h
1d
1L
0N
0H
1I
0J
1K
1D
1p
1)
11
00
1/
0.
04
12
0Y
0w
1u
0s
0i
1e
1q
#595000
0!
0S
0T
0}
0\
#600000
1!
1S
1T
1}
1\
1!!
0^
0Z
0x
1v
0t
1r
0j
1f
1M
0O
1H
0I
1J
0K
0D
0E
1Q
0_
0p
0b
1+
0*
0)
01
10
0/
1.
05
13
0~
1]
1Y
1w
0u
1s
1g
1C
1-
0q
0c
#605000
0!
0S
0T
#610000
1!
1S
1T
1Z
1x
0v
1t
0r
1h
0d
0L
1N
0H
1I
0J
1K
1D
1_
1p
1)
11
00
1/
0.
14
02
0Y
0w
1u
0s
1i
0e
0C
0-
1q
#615000
0!
0S
0T
0\
#620000
1!
1S
1T
1\
1^
0Z
0x
1v
0t
1r
1j
0f
0M
1O
1H
0I
1J
0K
0D
1E
0p
1b
1*
0)
01
10
0/
1.
15
03
0]
1Y
1w
0u
1s
0g
0q
1c
#625000
0!
0S
0T
#630000
1&
1'
1!
1[
1X
1S
1T
1Z
1x
0v
1t
0r
0h
1d
1L
0N
0H
1I
0J
1K
1D
0_
1p
1)
11
00
1/
0.
04
12
0Y
0w
1u
0s
0i
1e
1C
1-
1q
#635000
0!
0S
0T
0"!
0}
0\
#640000
1$
1!
1W
1S
1T
1l
1`
1"!
1}
1\
1F
1m
1:
1y
1k
0$!
0!!
0^
0Z
0x
1v
0t
1r
0j
1f
1M
0O
1H
0I
1J
0K
0D
0E
0Q
0R
0m
1_
0l
0p
0b
0,
0+
0*
0)
01
10
0/
1.
05
13
1#!
1~
1]
1Y
0y
1w
0u
1s
0k
1g
0C
0-
0`
0q
0c
0F
0:
#645000
0!
0S
0T
#650000
1!
1S
1T
1Z
1x
0v
1t
0r
1h
0d
0L
1N
0H
1I
0J
1K
1D
1l
1p
1)
11
00
1/
0.
14
02
0Y
0w
1u
0s
1i
0e
1q
#655000
0!
0S
0T
0\
#660000
1!
1S
1T
1\
1^
0Z
0x
1v
0t
1r
1j
0f
0M
1O
1H
0I
1J
0K
0D
1E
1m
0l
0p
1b
1*
0)
01
10
0/
1.
15
03
0]
1Y
1w
0u
1s
0g
0m
0q
1c
#665000
0!
0S
0T
#670000
1!
1S
1T
1Z
1x
0v
1t
0r
0h
1d
1L
0N
0H
1I
0J
1K
1D
1l
0_
1p
1)
11
00
1/
0.
04
12
0Y
0w
1u
0s
0i
1e
1C
1m
1-
1`
1q
1F
1:
1y
1k
#675000
0!
0S
0T
0}
0\
#680000
0'
0$
1!
0X
0W
1S
1T
1_
0l
0`
1}
1\
0F
0C
0m
0-
0:
0y
0k
1!!
0^
0Z
1z
0x
1v
0t
1r
0j
1f
1M
0O
1H
0I
1J
0K
1B
0D
0E
1Q
0p
0b
1+
0*
0)
16
01
10
0/
1.
05
13
0~
1]
1Y
1w
0u
1s
1g
0q
0c
#685000
0!
0S
0T
#690000
1$
1!
1W
1S
1T
1Z
1x
0v
1t
0r
1h
0d
0L
1N
0H
1I
0J
1K
1D
1l
0_
1p
1)
11
00
1/
0.
14
02
0Y
0w
1u
0s
1i
0e
1C
1m
1-
1`
1q
1F
1:
1y
#695000
0!
0S
0T
0\
#700000
1!
1S
1T
1\
1^
0Z
0x
1v
0t
1r
0n
1j
0f
0M
1O
0A
1H
0I
1J
0K
0D
1E
0m
1_
0l
0p
1b
1*
0)
01
10
0/
1.
07
15
03
0]
1Y
0y
1w
0u
1s
1k
0g
0C
0-
0`
0q
1c
0F
0:
0k
#705000
0!
0S
0T
#710000
1!
1S
1T
1Z
1x
0v
1t
0r
0h
1d
1L
0N
0H
1I
0J
1K
1D
1l
1p
1)
11
00
1/
0.
04
12
0Y
0w
1u
0s
0i
1e
1q
#715000
0!
0S
0T
0"!
0}
0\
#720000
1!
1S
1T
1"!
1}
1\
1$!
0!!
0^
0Z
0x
1v
0t
1r
0j
1f
1M
0O
1H
0I
1J
0K
0D
0E
0Q
1R
1m
0l
0p
0b
1,
0+
0*
0)
01
10
0/
1.
05
13
0#!
1~
1]
1Y
1w
0u
1s
1g
0m
0q
0c
#725000
0!
0S
0T
#730000
0&
0$
1!
0[
0W
1S
1T
0_
1C
1-
1Z
1x
0v
1t
0r
1h
0d
0L
1N
0H
1I
0J
1K
1D
1_
1p
1)
11
00
1/
0.
14
02
0Y
0w
1u
0s
1i
0e
0C
0-
1q
#735000
0!
0S
0T
0\
#740000
1$
1!
1W
1S
1T
1\
1^
0Z
0x
1v
0t
1r
1j
0f
0M
1O
1H
0I
1J
0K
0D
1E
1l
0p
1b
1*
0)
01
10
0/
1.
15
03
0]
1Y
1w
0u
1s
0g
0q
1c
#745000
0!
0S
0T
#750000
1!
1S
1T
1Z
1x
0v
1t
0r
0h
1d
1L
0N
0H
1I
0J
1K
1D
0l
1p
1)
11
00
1/
0.
04
12
0Y
0w
1u
0s
0i
1e
1q
#755000
0!
0S
0T
0}
0\
#760000
1!
1S
1T
1}
1\
1!!
0^
0Z
0x
1v
0t
1r
0j
1f
1M
0O
1H
0I
1J
0K
0D
0E
1Q
0_
1l
0p
0b
1+
0*
0)
01
10
0/
1.
05
13
0~
1]
1Y
1w
0u
1s
1g
1C
1m
1-
1`
0q
0c
1F
1:
#765000
0!
0S
0T
#770000
1!
1S
1T
1Z
0z
1x
0v
1t
0r
1h
0d
0L
1N
0H
1I
0J
1K
0B
1D
0l
1_
1p
1)
06
11
00
1/
0.
14
02
0Y
1y
0w
1u
0s
1i
0e
0C
0m
0-
0`
1q
0F
0:
0y
#775000
0!
0S
0T
0\
#780000
1'
0$
1!
1X
0W
1S
1T
1\
1^
0Z
0x
1v
0t
1r
1j
0f
0M
1O
1H
0I
1J
0K
0D
1E
0_
0p
1b
1*
0)
01
10
0/
1.
15
03
0]
1Y
1w
0u
1s
0g
1C
1-
0q
1c
#785000
0!
0S
0T
#790000
1$
1!
1W
1S
1T
1l
1`
1F
1m
1:
1k
1Z
1x
0v
1t
0r
0h
1d
1L
0N
0H
1I
0J
1K
1D
0l
1_
1p
1)
11
00
1/
0.
04
12
0Y
1y
0w
1u
0s
0i
1e
0C
0m
0-
0`
1q
0F
0:
0y
0k
#795000
0!
0S
0T
0"!
0}
0\
#800000
1!
1S
1T
1"!
1}
1\
0$!
0!!
0^
0Z
0x
1v
0t
1r
0j
1f
1M
0O
1H
0I
1J
0K
0D
0E
0Q
0R
1l
0p
0b
0,
0+
0*
0)
01
10
0/
1.
05
13
1#!
1~
1]
1Y
1w
0u
1s
1g
0q
0c
#805000
0!
0S
0T
#810000
1!
1S
1T
1Z
1x
0v
1t
0r
1h
0d
0L
1N
0H
1I
0J
1K
1D
0l
1p
1)
11
00
1/
0.
14
02
0Y
0w
1u
0s
1i
0e
1q
#815000
0!
0S
0T
0\
#820000
1!
1S
1T
1\
1^
0Z
0x
1v
0t
1r
1j
0f
0M
1O
1H
0I
1J
0K
0D
1E
0_
1l
0p
1b
1*
0)
01
10
0/
1.
15
03
0]
1Y
1w
0u
1s
0g
1C
1m
1-
1`
0q
1c
1F
1:
1k
#825000
0!
0S
0T
#830000
0'
0$
1!
0X
0W
1S
1T
1_
0l
0`
0F
0C
0m
0-
0:
0k
1Z
1x
0v
1t
0r
1n
0h
1d
1L
0N
1A
0H
1I
0J
1K
1D
1p
1)
11
00
1/
0.
17
04
12
0Y
0w
1u
0s
0i
1e
1q
#835000
0!
0S
0T
0}
0\
#840000
1!
1S
1T
1}
1\
1!!
0^
0Z
0x
1v
0t
1r
0j
1f
1M
0O
1H
0I
1J
0K
0D
0E
1Q
0_
0p
0b
1+
0*
0)
01
10
0/
1.
05
13
0~
1]
1Y
1w
0u
1s
1g
1C
1-
0q
0c
#845000
0!
0S
0T
#850000
1!
1S
1T
1Z
1x
0v
1t
0r
1h
0d
0L
1N
0H
1I
0J
1K
1D
1_
1p
1)
11
00
1/
0.
14
02
0Y
0w
1u
0s
1i
0e
0C
0-
1q
#855000
0!
0S
0T
0\
#860000
1!
1S
1T
1\
1^
0Z
0x
1v
0t
1r
1j
0f
0M
1O
1H
0I
1J
0K
0D
1E
0p
1b
1*
0)
01
10
0/
1.
15
03
0]
1Y
1w
0u
1s
0g
0q
1c
#865000
0!
0S
0T
#870000
1!
1S
1T
1Z
1x
0v
1t
0r
0h
1d
1L
0N
0H
1I
0J
1K
1D
1p
1)
11
00
1/
0.
04
12
0Y
0w
1u
0s
0i
1e
1q
#875000
0!
0S
0T
0"!
0}
0\
#880000
1!
1S
1T
1"!
1}
1\
1$!
0!!
0^
0Z
0x
1v
0t
1r
0j
1f
1M
0O
1H
0I
1J
0K
0D
0E
0Q
1R
0_
0p
0b
1,
0+
0*
0)
01
10
0/
1.
05
13
0#!
1~
1]
1Y
1w
0u
1s
1g
1C
1-
0q
0c
#885000
0!
0S
0T
#890000
1!
1S
1T
1Z
1x
0v
1t
0r
1h
0d
0L
1N
0H
1I
0J
1K
1D
1_
1p
1)
11
00
1/
0.
14
02
0Y
0w
1u
0s
1i
0e
0C
0-
1q
#895000
0!
0S
0T
0\
#900000
1!
1S
1T
1\
1^
0Z
0x
1v
0t
1r
1j
0f
0M
1O
1H
0I
1J
0K
0D
1E
0p
1b
1*
0)
01
10
0/
1.
15
03
0]
1Y
1w
0u
1s
0g
0q
1c
#905000
0!
0S
0T
#910000
1!
1S
1T
1Z
1x
0v
1t
0r
0h
1d
1L
0N
0H
1I
0J
1K
1D
1p
1)
11
00
1/
0.
04
12
0Y
0w
1u
0s
0i
1e
1q
#915000
0!
0S
0T
0}
0\
#920000
1!
1S
1T
1}
1\
1!!
0^
0Z
0x
1v
0t
1r
0j
1f
1M
0O
1H
0I
1J
0K
0D
0E
1Q
0_
0p
0b
1+
0*
0)
01
10
0/
1.
05
13
0~
1]
1Y
1w
0u
1s
1g
1C
1-
0q
0c
#925000
0!
0S
0T
#930000
1!
1S
1T
1Z
1x
0v
1t
0r
1h
0d
0L
1N
0H
1I
0J
1K
1D
1_
1p
1)
11
00
1/
0.
14
02
0Y
0w
1u
0s
1i
0e
0C
0-
1q
#935000
0!
0S
0T
0\
#940000
1!
1S
1T
1\
1^
0Z
0x
1v
0t
1r
1j
0f
0M
1O
1H
0I
1J
0K
0D
1E
0p
1b
1*
0)
01
10
0/
1.
15
03
0]
1Y
1w
0u
1s
0g
0q
1c
#945000
0!
0S
0T
#950000
1!
1S
1T
1Z
1x
0v
1t
0r
0h
1d
1L
0N
0H
1I
0J
1K
1D
1p
1)
11
00
1/
0.
04
12
0Y
0w
1u
0s
0i
1e
1q
#955000
0!
0S
0T
0"!
0}
0\
#960000
1!
1S
1T
1"!
1}
1\
0$!
0!!
0^
0Z
0x
1v
0t
1r
0j
1f
1M
0O
1H
0I
1J
0K
0D
0E
0Q
0R
0_
0p
0b
0,
0+
0*
0)
01
10
0/
1.
05
13
1#!
1~
1]
1Y
1w
0u
1s
1g
1C
1-
0q
0c
#965000
0!
0S
0T
#970000
1!
1S
1T
1Z
1x
0v
1t
0r
1h
0d
0L
1N
0H
1I
0J
1K
1D
1_
1p
1)
11
00
1/
0.
14
02
0Y
0w
1u
0s
1i
0e
0C
0-
1q
#975000
0!
0S
0T
0\
#980000
1!
1S
1T
1\
1^
0Z
0x
1v
0t
1r
1j
0f
0M
1O
1H
0I
1J
0K
0D
1E
0p
1b
1*
0)
01
10
0/
1.
15
03
0]
1Y
1w
0u
1s
0g
0q
1c
#985000
0!
0S
0T
#990000
1!
1S
1T
1Z
1x
0v
1t
0r
0h
1d
1L
0N
0H
1I
0J
1K
1D
1p
1)
11
00
1/
0.
04
12
0Y
0w
1u
0s
0i
1e
1q
#995000
0!
0S
0T
0}
0\
