lab3/simulation/qsim/lab3.msim.vcd
$comment
	File created using the following command:
		vcd file lab3.msim.vcd -direction
$end
$date
	Sat Mar 02 20:47:26 2024
$end
$version
	ModelSim Version 10.5b
$end
$timescale
	1ps
$end

$scope module lab3_vlg_vec_tst $end
$var reg 1 ! CLK $end
$var reg 1 " D0 $end
$var reg 1 # D1 $end
$var reg 1 $ D2 $end
$var reg 1 % D3 $end
$var reg 1 & EXECUTE $end
$var reg 1 ' F0 $end
$var reg 1 ( F1 $end
$var reg 1 ) F2 $end
$var reg 1 * LOAD_A $end
$var reg 1 + LOAD_B $end
$var reg 1 , R0 $end
$var reg 1 - R1 $end
$var wire 1 . fab $end
$var wire 1 / RA0 $end
$var wire 1 0 RA1 $end
$var wire 1 1 RA2 $end
$var wire 1 2 RA3 $end
$var wire 1 3 RB0 $end
$var wire 1 4 RB1 $end
$var wire 1 5 RB2 $end
$var wire 1 6 RB3 $end

$scope module i1 $end
$var wire 1 7 gnd $end
$var wire 1 8 vcc $end
$var wire 1 9 unknown $end
$var tri1 1 : devclrn $end
$var tri1 1 ; devpor $end
$var tri1 1 < devoe $end
$var wire 1 = RA0~output_o $end
$var wire 1 > RA3~output_o $end
$var wire 1 ? RB3~output_o $end
$var wire 1 @ fab~output_o $end
$var wire 1 A RA1~output_o $end
$var wire 1 B RA2~output_o $end
$var wire 1 C RB0~output_o $end
$var wire 1 D RB1~output_o $end
$var wire 1 E RB2~output_o $end
$var wire 1 F CLK~input_o $end
$var wire 1 G CLK~inputclkctrl_outclk $end
$var wire 1 H LOAD_A~input_o $end
$var wire 1 I D0~input_o $end
$var wire 1 J R1~input_o $end
$var wire 1 K R0~input_o $end
$var wire 1 L EXECUTE~input_o $end
$var wire 1 M inst12|26~0_combout $end
$var wire 1 N inst12|26~q $end
$var wire 1 O inst12|5~combout $end
$var wire 1 P inst12|25~0_combout $end
$var wire 1 Q inst12|25~q $end
$var wire 1 R inst15~combout $end
$var wire 1 S inst11|9~feeder_combout $end
$var wire 1 T inst11|9~q $end
$var wire 1 U inst17~0_combout $end
$var wire 1 V D1~input_o $end
$var wire 1 W inst|36~0_combout $end
$var wire 1 X inst|34~0_combout $end
$var wire 1 Y inst|34~1_combout $end
$var wire 1 Z inst|40~q $end
$var wire 1 [ D2~input_o $end
$var wire 1 \ inst|35~0_combout $end
$var wire 1 ] inst|39~q $end
$var wire 1 ^ inst|34~2_combout $end
$var wire 1 _ D3~input_o $end
$var wire 1 ` inst|34~3_combout $end
$var wire 1 a inst|38~q $end
$var wire 1 b LOAD_B~input_o $end
$var wire 1 c inst1|37~1_combout $end
$var wire 1 d F2~input_o $end
$var wire 1 e F0~input_o $end
$var wire 1 f F1~input_o $end
$var wire 1 g inst3|9~0_combout $end
$var wire 1 h inst1|37~0_combout $end
$var wire 1 i inst1|37~2_combout $end
$var wire 1 j inst1|34~2_combout $end
$var wire 1 k inst1|41~q $end
$var wire 1 l inst1|36~0_combout $end
$var wire 1 m inst1|40~q $end
$var wire 1 n inst1|35~0_combout $end
$var wire 1 o inst1|39~q $end
$var wire 1 p inst1|34~0_combout $end
$var wire 1 q inst1|34~1_combout $end
$var wire 1 r inst1|38~q $end
$var wire 1 s inst|37~1_combout $end
$var wire 1 t inst|37~0_combout $end
$var wire 1 u inst|37~2_combout $end
$var wire 1 v inst|41~q $end
$var wire 1 w inst16~combout $end
$upscope $end
$upscope $end
$enddefinitions $end
#0
$dumpvars
0!
0"
0#
0$
0%
0&
0'
0(
0)
0*
0+
0,
0-
0.
0/
00
01
02
03
04
05
06
07
18
x9
1:
1;
1<
0=
0>
0?
0@
0A
0B
0C
0D
0E
0F
0G
0H
0I
0J
0K
0L
1M
0N
1O
1P
0Q
0R
0S
0T
1U
0V
0W
1X
0Y
0Z
0[
0\
0]
0^
0_
0`
0a
0b
0c
0d
0e
0f
0g
0h
0i
0j
0k
0l
0m
0n
0o
0p
0q
0r
0s
0t
0u
0v
0w
$end
#5000
1!
1F
1G
#10000
1#
1"
0!
1V
1I
0F
0G
#15000
1!
1F
1G
#20000
0!
0F
0G
#25000
1!
1F
1G
#30000
1*
0!
1H
0F
0G
1Y
1u
1W
#35000
1!
1F
1G
1v
1Z
1A
1=
1/
10
#40000
0!
0F
0G
#45000
1!
1F
1G
#50000
0#
0"
0*
0!
0V
0I
0H
0F
0G
0Y
0u
1\
#55000
1!
1F
1G
#60000
0!
0F
0G
#65000
1!
1F
1G
#70000
1%
1$
0!
1_
1[
0F
0G
#75000
1!
1F
1G
#80000
0!
0F
0G
#85000
1!
1F
1G
#90000
1*
0!
1H
0F
0G
1Y
1`
0W
#95000
1!
1F
1G
0v
1a
1]
0Z
0A
1B
1>
0=
1s
0/
12
11
00
#100000
0!
0F
0G
#105000
1!
1F
1G
#110000
0%
0$
0*
0!
0_
0[
0H
0F
0G
1^
0Y
0`
0\
1u
1`
#115000
1!
1F
1G
#120000
0!
0F
0G
#125000
1!
1F
1G
#130000
0!
0F
0G
#135000
1!
1F
1G
#140000
0!
0F
0G
#145000
1!
1F
1G
#150000
1*
0!
1H
0F
0G
0^
1Y
0u
0`
#155000
1!
1F
1G
0a
0]
0B
0>
0s
02
01
#160000
0!
0F
0G
#165000
1!
1F
1G
#170000
0*
0!
0H
0F
0G
0Y
#175000
1!
1F
1G
#180000
0!
0F
0G
#185000
1!
1F
1G
#190000
1#
1"
0!
1V
1I
0F
0G
#195000
1!
1F
1G
#200000
0!
0F
0G
#205000
1!
1F
1G
#210000
1+
0!
1b
0F
0G
1j
1l
1i
#215000
1!
1F
1G
1m
1k
1C
1D
14
13
#220000
0!
0F
0G
#225000
1!
1F
1G
#230000
0#
0"
0+
0!
0V
0I
0b
0F
0G
0j
0i
1n
#235000
1!
1F
1G
#240000
0!
0F
0G
#245000
1!
1F
1G
#250000
1%
1$
0!
1_
1[
0F
0G
#255000
1!
1F
1G
#260000
0!
0F
0G
#265000
1!
1F
1G
#270000
1+
0!
1b
0F
0G
1j
1q
0l
#275000
1!
1F
1G
1r
1o
0m
0k
0C
0D
1E
1?
1c
16
15
04
03
#280000
0!
0F
0G
#285000
1!
1F
1G
#290000
0%
0$
0+
0!
0_
0[
0b
0F
0G
1p
0j
0q
0n
1i
1q
#295000
1!
1F
1G
#300000
0!
0F
0G
#305000
1!
1F
1G
#310000
0!
0F
0G
#315000
1!
1F
1G
#320000
0!
0F
0G
#325000
1!
1F
1G
#330000
1+
0!
1b
0F
0G
0p
1j
0i
0q
#335000
1!
1F
1G
0r
0o
0E
0?
0c
06
05
#340000
0!
0F
0G
#345000
1!
1F
1G
#350000
0+
0!
0b
0F
0G
0j
#355000
1!
1F
1G
#360000
0!
0F
0G
#365000
1!
1F
1G
#370000
0!
0F
0G
#375000
1!
1F
1G
#380000
0!
0F
0G
#385000
1!
1F
1G
#390000
0!
0F
0G
#395000
1!
1F
1G
#400000
1#
1%
1$
0!
1V
1_
1[
0F
0G
#405000
1!
1F
1G
#410000
0!
0F
0G
#415000
1!
1F
1G
#420000
1*
0!
1H
0F
0G
1Y
1`
1\
1W
#425000
1!
1F
1G
1a
1]
1Z
1A
1B
1>
1s
12
11
10
#430000
0!
0F
0G
#435000
1!
1F
1G
#440000
1"
0%
0*
0!
1I
0_
0H
0F
0G
1^
0Y
1u
0`
0W
1`
#445000
1!
1F
1G
#450000
0!
0F
0G
#455000
1!
1F
1G
#460000
1+
0!
1b
0F
0G
1j
1n
1l
1i
#465000
1!
1F
1G
1o
1m
1k
1C
1D
1E
15
14
13
#470000
0!
0F
0G
#475000
1!
1F
1G
#480000
0#
0$
0"
0+
0!
0V
0[
0I
0b
0F
0G
0j
0i
#485000
1!
1F
1G
#490000
0!
0F
0G
#495000
1!
1F
1G
#500000
1&
0!
1L
0F
0G
0X
0U
1R
1Y
1p
1j
1S
1q
#505000
1!
1F
1G
1N
1T
1v
1r
0k
0Z
0A
0C
1?
1=
1X
1g
1c
1/
16
03
00
0M
1W
0l
0\
1w
1i
1@
1.
#510000
0!
0F
0G
0O
#515000
1!
1F
1G
1O
1Q
0N
0m
1k
0]
1Z
1A
0B
1C
0D
0^
04
13
01
10
0P
1M
0n
1l
1\
0`
#520000
0!
0F
0G
#525000
1!
1F
1G
1N
0o
1m
0a
1]
1B
0>
1D
0E
0p
0s
0g
1^
05
14
02
11
0M
1n
0q
0u
0w
1`
0@
0.
#530000
0!
0F
0G
0O
#535000
1!
1F
1G
1O
0Q
0N
0v
0r
1o
1a
1>
1E
0?
0=
0Y
1U
1s
1p
0c
0/
06
15
12
1P
1M
0W
0p
0j
1u
1q
0i
0q
#540000
0!
0F
0G
#545000
1!
1F
1G
#550000
0!
0F
0G
#555000
1!
1F
1G
#560000
0!
0F
0G
#565000
1!
1F
1G
#570000
0!
0F
0G
#575000
1!
1F
1G
#580000
0!
0F
0G
#585000
1!
1F
1G
#590000
0!
0F
0G
#595000
1!
1F
1G
#600000
1,
1%
1#
1$
0&
0!
1K
1_
1V
1[
0L
0F
0G
0R
0S
#605000
1!
1F
1G
0T
#610000
0!
0F
0G
#615000
1!
1F
1G
#620000
1*
0!
1H
0F
0G
0^
1Y
0u
1W
#625000
1!
1F
1G
#630000
0!
0F
0G
#635000
1!
1F
1G
#640000
1"
0%
0*
0!
1I
0_
0H
0F
0G
1^
0Y
1u
0`
0W
1`
#645000
1!
1F
1G
#650000
0!
0F
0G
#655000
1!
1F
1G
#660000
1+
0!
1b
0F
0G
1j
1i
#665000
1!
1F
1G
#670000
0!
0F
0G
#675000
1!
1F
1G
#680000
0#
0$
0"
0+
0!
0V
0[
0I
0b
0F
0G
0j
0i
#685000
1!
1F
1G
#690000
0!
0F
0G
#695000
1!
1F
1G
#700000
1&
0!
1L
0F
0G
0X
0U
1R
1Y
1p
1j
1S
1q
#705000
1!
1F
1G
1N
1T
1v
1r
0k
0Z
0A
0C
1?
1=
1X
1g
1/
16
03
00
0M
1W
0l
0\
1h
1w
1@
1.
1i
#710000
0!
0F
0G
0O
#715000
1!
1F
1G
1O
1Q
0N
0m
1k
0]
1Z
1A
0B
1C
0D
0^
04
13
01
10
0P
1M
0n
1l
1\
0`
#720000
0!
0F
0G
#725000
1!
1F
1G
1N
0o
1m
0a
1]
1B
0>
1D
0E
0p
0s
0g
1^
05
14
02
11
0M
1n
0h
0q
0u
0w
1`
0@
0.
0i
#730000
0!
0F
0G
0O
#735000
1!
1F
1G
1O
0Q
0N
0v
0r
1o
0k
1a
1>
0C
1E
0?
0=
0Y
1U
1s
1p
0/
06
15
03
12
1P
1M
0W
0l
0p
0j
1u
1q
0q
#740000
0!
0F
0G
#745000
1!
1F
1G
#750000
0!
0F
0G
#755000
1!
1F
1G
#760000
0!
0F
0G
#765000
1!
1F
1G
#770000
0!
0F
0G
#775000
1!
1F
1G
#780000
0!
0F
0G
#785000
1!
1F
1G
#790000
0!
0F
0G
#795000
1!
1F
1G
#800000
1-
0,
1%
1#
1$
0&
0!
1J
0K
1_
1V
1[
0L
0F
0G
0s
0R
0u
0S
#805000
1!
1F
1G
0T
#810000
0!
0F
0G
#815000
1!
1F
1G
#820000
1*
0!
1H
0F
0G
0^
1Y
1W
#825000
1!
1F
1G
#830000
0!
0F
0G
#835000
1!
1F
1G
#840000
1"
0%
0*
0!
1I
0_
0H
0F
0G
1^
0Y
0`
0W
1`
#845000
1!
1F
1G
#850000
0!
0F
0G
#855000
1!
1F
1G
#860000
1+
0!
1b
0F
0G
1j
1l
1i
#865000
1!
1F
1G
1k
1C
13
#870000
0!
0F
0G
#875000
1!
1F
1G
#880000
0#
0$
0"
0+
0!
0V
0[
0I
0b
0F
0G
0j
0i
#885000
1!
1F
1G
#890000
0!
0F
0G
#895000
1!
1F
1G
#900000
1&
0!
1L
0F
0G
0X
0U
1R
1Y
1p
1j
1S
1q
#905000
1!
1F
1G
1N
1T
1r
0k
0Z
0A
0C
1?
1X
1g
1c
16
03
00
0M
0l
0\
1t
1w
1i
1@
1.
1u
#910000
0!
0F
0G
0O
#915000
1!
1F
1G
1O
1Q
0N
1v
0m
1k
0]
0B
1C
0D
1=
0^
1/
04
13
01
0P
1M
1W
0n
1l
0`
#920000
0!
0F
0G
#925000
1!
1F
1G
1N
0o
1m
0a
1Z
1A
0>
1D
0E
0p
0g
05
14
02
10
0M
1n
1\
0t
0q
0w
0@
0.
0u
#930000
0!
0F
0G
0O
#935000
1!
1F
1G
1O
0Q
0N
0v
0r
1o
1]
1B
1E
0?
0=
0Y
1U
1p
0c
1^
0/
06
15
11
1P
1M
0W
0p
0j
0^
1q
0i
1`
0q
0`
#940000
0!
0F
0G
#945000
1!
1F
1G
#950000
0!
0F
0G
#955000
1!
1F
1G
#960000
0!
0F
0G
#965000
1!
1F
1G
#970000
0!
0F
0G
#975000
1!
1F
1G
#980000
0!
0F
0G
#985000
1!
1F
1G
#990000
0!
0F
0G
#995000
1!
1F
1G
#1000000
1,
1%
1#
1$
0&
0!
1K
1_
1V
1[
0L
0F
0G
0R
0S
#1005000
1!
1F
1G
0T
#1010000
0!
0F
0G
#1015000
1!
1F
1G
#1020000
1*
0!
1H
0F
0G
1Y
1`
1W
#1025000
1!
1F
1G
1a
1>
1c
12
1i
#1030000
0!
0F
0G
#1035000
1!
1F
1G
#1040000
1"
0%
0*
0!
1I
0_
0H
0F
0G
1^
0Y
0`
0W
1`
#1045000
1!
1F
1G
#1050000
0!
0F
0G
#1055000
1!
1F
1G
#1060000
1+
0!
1b
0F
0G
1j
#1065000
1!
1F
1G
#1070000
0!
0F
0G
#1075000
1!
1F
1G
#1080000
0#
0$
0"
0+
0!
0V
0[
0I
0b
0F
0G
0j
#1085000
1!
1F
1G
#1090000
0!
0F
0G
#1095000
1!
1F
1G
#1100000
1&
0!
1L
0F
0G
0X
0U
1R
1Y
1p
1j
1S
1q
#1105000
1!
1F
1G
1N
1T
1r
0Z
0A
1?
1X
1s
1g
16
00
0M
0\
1u
1w
1@
1.
#1110000
0!
0F
0G
0O
#1115000
1!
1F
1G
1O
1Q
0N
1v
0]
0B
1=
0^
1/
01
0P
1M
1W
0`
#1120000
0!
0F
0G
#1125000
1!
1F
1G
1N
0a
1Z
1A
0>
0g
0c
02
10
0M
1\
0w
0i
0@
0.
#1130000
0!
0F
0G
0O
#1135000
1!
1F
1G
1O
0Q
0N
0k
1]
1B
0C
0Y
1U
1^
03
11
1P
1M
0l
0j
0^
1`
0`
#1140000
0!
0F
0G
#1145000
1!
1F
1G
#1150000
0!
0F
0G
#1155000
1!
1F
1G
#1160000
0!
0F
0G
#1165000
1!
1F
1G
#1170000
0!
0F
0G
#1175000
1!
1F
1G
#1180000
0!
0F
0G
#1185000
1!
1F
1G
#1190000
0!
0F
0G
#1195000
1!
1F
1G
#1200000
1'
0,
1%
1#
0&
0!
1e
0K
1_
1V
0L
0F
0G
1g
0s
1c
0R
1t
1w
0u
1i
0S
1@
1.
1u
#1205000
1!
1F
1G
0T
#1210000
0!
0F
0G
#1215000
1!
1F
1G
#1220000
1*
0!
1H
0F
0G
1Y
0u
1`
0\
#1225000
1!
1F
1G
0v
1a
0]
0B
1>
0=
0/
12
01
#1230000
0!
0F
0G
#1235000
1!
1F
1G
#1240000
1$
1"
0%
0*
0!
1[
1I
0_
0H
0F
0G
1^
0Y
1\
1u
0`
0W
1`
#1245000
1!
1F
1G
#1250000
0!
0F
0G
#1255000
1!
1F
1G
#1260000
1+
0!
1b
0F
0G
0p
1j
1l
0q
#1265000
1!
1F
1G
0r
1k
1C
0?
0c
06
13
#1270000
0!
0F
0G
#1275000
1!
1F
1G
#1280000
0#
0$
0"
0+
0!
0V
0[
0I
0b
0F
0G
0j
0i
#1285000
1!
1F
1G
#1290000
0!
0F
0G
#1295000
1!
1F
1G
#1300000
1&
0!
1L
0F
0G
0X
0U
1R
1Y
1p
1j
0^
1S
1q
0`
#1305000
1!
1F
1G
1N
1T
1v
1r
0k
0a
1]
0Z
0A
1B
0>
0C
1?
1=
1X
1c
1^
1/
16
03
02
11
00
0M
1W
0l
0\
1i
1`
#1310000
0!
0F
0G
0O
#1315000
1!
1F
1G
1O
1Q
0N
0m
1k
1a
0]
1Z
1A
0B
1>
1C
0D
0^
04
13
12
01
10
0P
1M
0n
1l
1\
0`
#1320000
0!
0F
0G
#1325000
1!
1F
1G
1N
0o
1m
0a
1]
1B
0>
1D
0E
0p
1^
05
14
02
11
0M
1n
0q
1`
#1330000
0!
0F
0G
0O
#1335000
1!
1F
1G
1O
0Q
0N
0r
1o
1a
1>
1E
0?
0Y
1U
1p
0c
06
15
12
1P
1M
0p
0j
1q
0i
0q
#1340000
0!
0F
0G
#1345000
1!
1F
1G
#1350000
0!
0F
0G
#1355000
1!
1F
1G
#1360000
0!
0F
0G
#1365000
1!
1F
1G
#1370000
0!
0F
0G
#1375000
1!
1F
1G
#1380000
0!
0F
0G
#1385000
1!
1F
1G
#1390000
0!
0F
0G
#1395000
1!
1F
1G
#1400000
1(
0'
1%
1#
0&
0!
1f
0e
1_
1V
0L
0F
0G
0R
0S
#1405000
1!
1F
1G
0T
#1410000
0!
0F
0G
#1415000
1!
1F
1G
#1420000
1*
0!
1H
0F
0G
0^
1Y
0u
0\
#1425000
1!
1F
1G
0v
0]
0B
0=
0/
01
#1430000
0!
0F
0G
#1435000
1!
1F
1G
#1440000
1$
1"
0%
0*
0!
1[
1I
0_
0H
0F
0G
1^
0Y
1\
1u
0`
0W
1`
#1445000
1!
1F
1G
#1450000
0!
0F
0G
#1455000
1!
1F
1G
#1460000
1+
0!
1b
0F
0G
1j
1i
#1465000
1!
1F
1G
#1470000
0!
0F
0G
#1475000
1!
1F
1G
#1480000
0#
0$
0"
0+
0!
0V
0[
0I
0b
0F
0G
0j
0i
#1485000
1!
1F
1G
#1490000
0!
0F
0G
#1495000
1!
1F
1G
#1500000
1&
0!
1L
0F
0G
0X
0U
1R
1Y
1p
1j
0^
1S
1q
0`
#1505000
1!
1F
1G
1N
1T
1v
1r
0k
0a
1]
0Z
0A
1B
0>
0C
1?
1=
1X
1c
1^
1/
16
03
02
11
00
0M
1W
0l
0\
1i
1`
#1510000
0!
0F
0G
0O
#1515000
1!
1F
1G
1O
1Q
0N
0m
1k
1a
0]
1Z
1A
0B
1>
1C
0D
0g
0^
04
13
12
01
10
0P
1M
0n
1l
1\
0t
0w
0`
0@
0.
0u
#1520000
0!
0F
0G
#1525000
1!
1F
1G
1N
0v
0o
1m
0a
1]
1B
0>
1D
0E
0=
0p
1g
1^
0/
05
14
02
11
0M
0W
1n
1t
0q
1w
1`
1@
1.
1u
#1530000
0!
0F
0G
0O
#1535000
1!
1F
1G
1O
0Q
0N
1v
0r
1o
1a
0Z
0A
1>
1E
0?
1=
0Y
1U
1p
0c
1/
06
15
12
00
1P
1M
1W
0\
0p
0j
1q
0i
0q
#1540000
0!
0F
0G
#1545000
1!
1F
1G
#1550000
0!
0F
0G
#1555000
1!
1F
1G
#1560000
0!
0F
0G
#1565000
1!
1F
1G
#1570000
0!
0F
0G
#1575000
1!
1F
1G
#1580000
0!
0F
0G
#1585000
1!
1F
1G
#1590000
0!
0F
0G
#1595000
1!
1F
1G
#1600000
1'
1%
1#
0&
0!
1e
1_
1V
0L
0F
0G
0R
0S
#1605000
1!
1F
1G
0T
#1610000
0!
0F
0G
#1615000
1!
1F
1G
#1620000
1*
0!
1H
0F
0G
0^
1Y
0u
#1625000
1!
1F
1G
0v
0]
1Z
1A
0B
0=
0/
01
10
#1630000
0!
0F
0G
#1635000
1!
1F
1G
#1640000
1$
1"
0%
0*
0!
1[
1I
0_
0H
0F
0G
1^
0Y
1\
1u
0`
0W
1`
#1645000
1!
1F
1G
#1650000
0!
0F
0G
#1655000
1!
1F
1G
#1660000
1+
0!
1b
0F
0G
1j
1i
#1665000
1!
1F
1G
#1670000
0!
0F
0G
#1675000
1!
1F
1G
#1680000
0#
0$
0"
0+
0!
0V
0[
0I
0b
0F
0G
0j
0i
#1685000
1!
1F
1G
#1690000
0!
0F
0G
#1695000
1!
1F
1G
#1700000
1&
0!
1L
0F
0G
0X
0U
1R
1Y
1p
1j
0^
1S
1q
0`
#1705000
1!
1F
1G
1N
1T
1v
1r
0k
0a
1]
0Z
0A
1B
0>
0C
1?
1=
1X
1c
1^
1/
16
03
02
11
00
0M
1W
0l
0\
1i
1`
#1710000
0!
0F
0G
0O
#1715000
1!
1F
1G
1O
1Q
0N
0m
1k
1a
0]
1Z
1A
0B
1>
1C
0D
0^
04
13
12
01
10
0P
1M
0n
1l
1\
0`
#1720000
0!
0F
0G
#1725000
1!
1F
1G
1N
0o
1m
0a
1]
1B
0>
1D
0E
0p
1^
05
14
02
11
0M
1n
0q
1`
#1730000
0!
0F
0G
0O
#1735000
1!
1F
1G
1O
0Q
0N
0r
1o
1a
1>
1E
0?
0Y
1U
1p
0c
06
15
12
1P
1M
0p
0j
1q
0i
0q
#1740000
0!
0F
0G
#1745000
1!
1F
1G
#1750000
0!
0F
0G
#1755000
1!
1F
1G
#1760000
0!
0F
0G
#1765000
1!
1F
1G
#1770000
0!
0F
0G
#1775000
1!
1F
1G
#1780000
0!
0F
0G
#1785000
1!
1F
1G
#1790000
0!
0F
0G
#1795000
1!
1F
1G
#1800000
1)
0(
0'
1%
1#
0&
0!
1d
0f
0e
1_
1V
0L
0F
0G
0t
0g
0R
0w
0@
1t
0.
0u
1w
0S
1@
1.
1u
#1805000
1!
1F
1G
0T
#1810000
0!
0F
0G
#1815000
1!
1F
1G
#1820000
1*
0!
1H
0F
0G
0^
1Y
0u
0\
#1825000
1!
1F
1G
0v
0]
0B
0=
0/
01
#1830000
0!
0F
0G
#1835000
1!
1F
1G
#1840000
1$
1"
0%
0*
0!
1[
1I
0_
0H
0F
0G
1^
0Y
1\
1u
0`
0W
1`
#1845000
1!
1F
1G
#1850000
0!
0F
0G
#1855000
1!
1F
1G
#1860000
1+
0!
1b
0F
0G
1j
1i
#1865000
1!
1F
1G
#1870000
0!
0F
0G
#1875000
1!
1F
1G
#1880000
0#
0$
0"
0+
0!
0V
0[
0I
0b
0F
0G
0j
0i
#1885000
1!
1F
1G
#1890000
0!
0F
0G
#1895000
1!
1F
1G
#1900000
1&
0!
1L
0F
0G
0X
0U
1R
1Y
1p
1j
0^
1S
1q
0`
#1905000
1!
1F
1G
1N
1T
1v
1r
0k
0a
1]
0Z
0A
1B
0>
0C
1?
1=
1X
1c
1^
1/
16
03
02
11
00
0M
1W
0l
0\
1i
1`
#1910000
0!
0F
0G
0O
#1915000
1!
1F
1G
1O
1Q
0N
0m
1k
1a
0]
1Z
1A
0B
1>
1C
0D
1g
0^
04
13
12
01
10
0P
1M
0n
1l
1\
0t
0w
0`
0@
0.
0u
#1920000
0!
0F
0G
#1925000
1!
1F
1G
1N
0v
0o
1m
0a
1]
1B
0>
1D
0E
0=
0p
0g
1^
0/
05
14
02
11
0M
0W
1n
1t
0q
1w
1`
1@
1.
1u
#1930000
0!
0F
0G
0O
#1935000
1!
1F
1G
1O
0Q
0N
1v
0r
1o
1a
0Z
0A
1>
1E
0?
1=
0Y
1U
1p
0c
1/
06
15
12
00
1P
1M
1W
0\
0p
0j
1q
0i
0q
#1940000
0!
0F
0G
#1945000
1!
1F
1G
#1950000
0!
0F
0G
#1955000
1!
1F
1G
#1960000
0!
0F
0G
#1965000
1!
1F
1G
#1970000
0!
0F
0G
#1975000
1!
1F
1G
#1980000
0!
0F
0G
#1985000
1!
1F
1G
#1990000
0!
0F
0G
#1995000
1!
1F
1G
#2000000
1'
1%
1#
0&
0!
1e
1_
1V
0L
0F
0G
1g
0R
0t
0w
0S
0@
0.
0u
#2005000
1!
1F
1G
0T
#2010000
0!
0F
0G
#2015000
1!
1F
1G
#2020000
1*
0!
1H
0F
0G
0^
1Y
#2025000
1!
1F
1G
0v
0]
1Z
1A
0B
0=
0/
01
10
#2030000
0!
0F
0G
#2035000
1!
1F
1G
#2040000
1$
1"
0%
0*
0!
1[
1I
0_
0H
0F
0G
1^
0Y
1\
0`
0W
1`
#2045000
1!
1F
1G
#2050000
0!
0F
0G
#2055000
1!
1F
1G
#2060000
1+
0!
1b
0F
0G
1j
1i
#2065000
1!
1F
1G
#2070000
0!
0F
0G
#2075000
1!
1F
1G
#2080000
0#
0$
0"
0+
0!
0V
0[
0I
0b
0F
0G
0j
0i
#2085000
1!
1F
1G
#2090000
0!
0F
0G
#2095000
1!
1F
1G
#2100000
0!
0F
0G
#2105000
1!
1F
1G
#2110000
1&
0!
1L
0F
0G
0X
0U
1R
1Y
1p
1j
0^
1S
1q
0`
#2115000
1!
1F
1G
1N
1T
1r
0k
0a
1]
0Z
0A
1B
0>
0C
1?
1X
1c
1^
16
03
02
11
00
0M
0l
0\
1i
1`
#2120000
0!
0F
0G
0O
#2125000
1!
1F
1G
1O
1Q
0N
0m
1k
1a
0]
0B
1>
1C
0D
0^
04
13
12
01
0P
1M
0n
1l
0`
#2130000
0!
0F
0G
#2135000
1!
1F
1G
1N
0o
1m
0a
0>
1D
0E
0p
05
14
02
0M
1n
0q
#2140000
0!
0F
0G
0O
#2145000
1!
1F
1G
1O
0Q
0N
0r
1o
1E
0?
0Y
1U
1p
0g
0c
06
15
1P
1M
0p
0j
1t
1q
1w
0i
1@
1.
0q
1u
#2150000
0!
0F
0G
#2155000
1!
1F
1G
#2160000
0!
0F
0G
#2165000
1!
1F
1G
#2170000
0!
0F
0G
#2175000
1!
1F
1G
#2180000
0!
0F
0G
#2185000
1!
1F
1G
#2190000
0!
0F
0G
#2195000
1!
1F
1G
#2200000
1(
0'
1%
1#
0&
0!
1f
0e
1_
1V
0L
0F
0G
0R
0S
#2205000
1!
1F
1G
0T
#2210000
0!
0F
0G
#2215000
1!
1F
1G
#2220000
1*
0!
1H
0F
0G
1Y
0u
1`
1W
#2225000
1!
1F
1G
1a
1Z
1A
1>
1g
12
10
0t
0w
0@
0.
#2230000
0!
0F
0G
#2235000
1!
1F
1G
#2240000
1$
1"
0%
0*
0!
1[
1I
0_
0H
0F
0G
1^
0Y
1\
0`
0W
1`
#2245000
1!
1F
1G
#2250000
0!
0F
0G
#2255000
1!
1F
1G
#2260000
1+
0!
1b
0F
0G
1j
1i
#2265000
1!
1F
1G
#2270000
0!
0F
0G
#2275000
1!
1F
1G
#2280000
0#
0$
0"
0+
0!
0V
0[
0I
0b
0F
0G
0j
0i
#2285000
1!
1F
1G
#2290000
0!
0F
0G
#2295000
1!
1F
1G
#2300000
1&
0!
1L
0F
0G
0X
0U
1R
1Y
1p
1j
0^
1S
1q
0`
#2305000
1!
1F
1G
1N
1T
1r
0k
0a
1]
0Z
0A
1B
0>
0C
1?
1X
1c
1^
16
03
02
11
00
0M
0l
0\
1i
1`
#2310000
0!
0F
0G
0O
#2315000
1!
1F
1G
1O
1Q
0N
0m
1k
1a
0]
0B
1>
1C
0D
0g
0^
04
13
12
01
0P
1M
0n
1l
1t
1w
0`
1@
1.
1u
#2320000
0!
0F
0G
#2325000
1!
1F
1G
1N
1v
0o
1m
0a
0>
1D
0E
1=
0p
1g
1/
05
14
02
0M
1W
1n
0t
0q
0w
0@
0.
0u
#2330000
0!
0F
0G
0O
#2335000
1!
1F
1G
1O
0Q
0N
0v
0r
1o
1Z
1A
1E
0?
0=
0Y
1U
1p
0g
0c
0/
06
15
10
1P
1M
0W
1\
0p
0j
1t
1q
1w
0i
1@
1.
0q
1u
#2340000
0!
0F
0G
#2345000
1!
1F
1G
#2350000
0!
0F
0G
#2355000
1!
1F
1G
#2360000
0!
0F
0G
#2365000
1!
1F
1G
#2370000
0!
0F
0G
#2375000
1!
1F
1G
#2380000
0!
0F
0G
#2385000
1!
1F
1G
#2390000
0!
0F
0G
#2395000
1!
1F
1G
#2400000
1'
1%
1#
0&
0!
1e
1_
1V
0L
0F
0G
1g
0R
0t
0w
0S
0@
0.
0u
#2405000
1!
1F
1G
0T
#2410000
0!
0F
0G
#2415000
1!
1F
1G
#2420000
1*
0!
1H
0F
0G
1Y
1`
0\
1W
#2425000
1!
1F
1G
1a
1>
12
#2430000
0!
0F
0G
#2435000
1!
1F
1G
#2440000
1$
1"
0%
0*
0!
1[
1I
0_
0H
0F
0G
1^
0Y
1\
0`
0W
1`
#2445000
1!
1F
1G
#2450000
0!
0F
0G
#2455000
1!
1F
1G
#2460000
1+
0!
1b
0F
0G
1j
1i
#2465000
1!
1F
1G
#2470000
0!
0F
0G
#2475000
1!
1F
1G
#2480000
0#
0$
0"
0+
0!
0V
0[
0I
0b
0F
0G
0j
0i
#2485000
1!
1F
1G
#2490000
0!
0F
0G
#2495000
1!
1F
1G
#2500000
1&
0!
1L
0F
0G
0X
0U
1R
1Y
1p
1j
0^
1S
1q
0`
#2505000
1!
1F
1G
1N
1T
1r
0k
0a
1]
0Z
0A
1B
0>
0C
1?
1X
1c
1^
16
03
02
11
00
0M
0l
0\
1i
1`
#2510000
0!
0F
0G
0O
#2515000
1!
1F
1G
1O
1Q
0N
0m
1k
1a
0]
0B
1>
1C
0D
0^
04
13
12
01
0P
1M
0n
1l
0`
#2520000
0!
0F
0G
#2525000
1!
1F
1G
1N
0o
1m
0a
0>
1D
0E
0p
05
14
02
0M
1n
0q
#2530000
0!
0F
0G
0O
#2535000
1!
1F
1G
1O
0Q
0N
0r
1o
1E
0?
0Y
1U
1p
0c
06
15
1P
1M
0p
0j
1q
0i
0q
#2540000
0!
0F
0G
#2545000
1!
1F
1G
#2550000
0!
0F
0G
#2555000
1!
1F
1G
#2560000
0!
0F
0G
#2565000
1!
1F
1G
#2570000
0!
0F
0G
#2575000
1!
1F
1G
#2580000
0!
0F
0G
#2585000
1!
1F
1G
#2590000
0!
0F
0G
#2595000
1!
1F
1G
