lab1/simulation/qsim/lab1.msim.vcd
$comment
	File created using the following command:
		vcd file lab1.msim.vcd -direction
$end
$date
	Fri Jan 19 19:57:49 2024
$end
$version
	ModelSim Version 10.5b
$end
$timescale
	1ps
$end

$scope module Block2_vlg_vec_tst $end
$var reg 1 ! A1 $end
$var reg 1 " B1 $end
$var reg 1 # C1 $end
$var wire 1 $ Z1 $end

$scope module i1 $end
$var wire 1 % gnd $end
$var wire 1 & vcc $end
$var wire 1 ' unknown $end
$var tri1 1 ( devclrn $end
$var tri1 1 ) devpor $end
$var tri1 1 * devoe $end
$var wire 1 + Z1~output_o $end
$var wire 1 , C1~input_o $end
$var wire 1 - B1~input_o $end
$var wire 1 . A1~input_o $end
$var wire 1 / inst8|4~0_combout $end
$upscope $end
$upscope $end
$enddefinitions $end
#0
$dumpvars
1!
0"
1#
1$
0%
1&
x'
1(
1)
1*
1+
1,
0-
1.
1/
$end
#50000
1"
1-
#100000
0"
0-
#150000
1"
1-
#200000
0"
0-
#250000
1"
1-
#300000
0"
0-
#350000
1"
1-
#400000
0"
0-
#450000
1"
1-
#460000
0#
0,
#500000
0"
0-
0/
0+
0$
#550000
1"
1-
1/
1+
1$
#600000
0"
0-
0/
0+
0$
#650000
1"
1-
1/
1+
1$
#700000
0"
0-
0/
0+
0$
#750000
1"
1-
1/
1+
1$
#800000
0"
0-
0/
0+
0$
#850000
1"
1-
1/
1+
1$
#900000
0"
0-
0/
0+
0$
#920000
1#
1,
1/
1+
1$
#950000
1"
1-
